{
    "aim_no_recoil": true,
    "aim_type": 2,
    "aiming": true,
    "auto_firing_range": true,
    "auto_reload": true,
    "esp": false,
    "esp_bone": true,
    "esp_box": true,
    "esp_distance": true,
    "esp_healthbar": true,
    "esp_killcount": true,
    "esp_level": true,
    "esp_name": true,
    "esp_rank": true,
    "flickConfig": {
        "active_max_distance": 6.0,
        "active_min_distance": 50.0,
        "bone": 2,
        "key_code": 112,
        "max_fov": 10.0,
        "min_fov": 5.0,
        "recoil": 0.800000011920929,
        "smooth": 5
    },
    "glow_dist": 800.0,
    "glowing": true,
    "healthbar_dist": 70.0,
    "max_dist": 200.0,
    "observer_reminder": true,
    "super_glide": true,
    "superglide_key_code": 79,
    "thirdperson": false,
    "trackConfig": {
        "active_max_distance": 6.0,
        "active_min_distance": 50.0,
        "bone": 2,
        "key_code": 108,
        "max_fov": 10.0,
        "min_fov": 5.0,
        "recoil": 0.800000011920929,
        "smooth": 5
    }
}
